\relax 
\providecommand\hyper@newdestlabel[2]{}
\providecommand\HyperFirstAtBeginDocument{\AtBeginDocument}
\HyperFirstAtBeginDocument{\ifx\hyper@anchor\@undefined
\global\let\oldcontentsline\contentsline
\gdef\contentsline#1#2#3#4{\oldcontentsline{#1}{#2}{#3}}
\global\let\oldnewlabel\newlabel
\gdef\newlabel#1#2{\newlabelxx{#1}#2}
\gdef\newlabelxx#1#2#3#4#5#6{\oldnewlabel{#1}{{#2}{#3}}}
\AtEndDocument{\ifx\hyper@anchor\@undefined
\let\contentsline\oldcontentsline
\let\newlabel\oldnewlabel
\fi}
\fi}
\global\let\hyper@last\relax 
\gdef\HyperFirstAtBeginDocument#1{#1}
\providecommand\HyField@AuxAddToFields[1]{}
\providecommand\HyField@AuxAddToCoFields[2]{}
\citation{Kleene56}
\citation{Milner2006}
\newlabel{FirstPage}{{}{1}{}{Doc-Start}{}}
\newlabel{ALL}{{1 }{1}{}{footnote.0}{}}
\newlabel{myemail}{{2 }{1}{}{footnote.0}{}}
\newlabel{coemail}{{3 }{1}{}{footnote.0}{}}
\newlabel{coemail2}{{4 }{1}{}{footnote.0}{}}
\global\@namedef{n@author@}{3}
\global\@namedef{n@collab@}{0}
\@writefile{toc}{\contentsline {section}{\numberline {1}Introduction}{1}{section.0.1}}
\newlabel{sec:intro}{{1}{1}{Introduction}{section.0.1}{}}
\citation{Kozen90}
\citation{FMC17}
\citation{Wee1969}
\citation{fuzzyautomata}
\citation{LiP05}
\citation{MateescuSSY95}
\citation{LeeZ69,Zadeh1996}
\citation{LinY02}
\citation{Mordeson2002}
\citation{PedryczG01}
\citation{Ying02a}
\citation{Milner83}
\citation{Mil80}
\citation{Prisacariu10}
\citation{Segerberg1982,vonWright1968-VONAEI-3}
\citation{Prisacariu10}
\citation{MateescuSSY95}
\citation{Prisacariu10}
\citation{ullman03}
\@writefile{lof}{\contentsline {figure}{\numberline {1}{\ignorespaces Interleaving two automata representing deterministic flows.}}{2}{figure.1}}
\newlabel{fig:inter}{{1}{2}{Interleaving two automata representing deterministic flows}{figure.1}{}}
\citation{Prisacariu10}
\citation{Prisacariu10}
\citation{Prisacariu10}
\@writefile{toc}{\contentsline {subsection}{\numberline {1.1}Kleene algebra}{3}{subsection.0.1.1}}
\newlabel{def:ka}{{1.1}{3}{Kleene algebra}{thm.0.1.1}{}}
\@writefile{toc}{\contentsline {subsection}{\numberline {1.2}Synchronous Kleene algebra}{3}{subsection.0.1.2}}
\@writefile{toc}{\contentsline {subsection}{\numberline {1.3}Complete Heyting algebra}{3}{subsection.0.1.3}}
\newlabel{eqn18}{{22}{3}{Complete Heyting algebra}{equation.22}{}}
\newlabel{eqn19}{{23}{3}{Complete Heyting algebra}{equation.22}{}}
\newlabel{eqn20}{{24}{3}{Complete Heyting algebra}{equation.22}{}}
\newlabel{eqn21}{{25}{3}{Complete Heyting algebra}{equation.22}{}}
\newlabel{eqn22}{{26}{3}{Complete Heyting algebra}{equation.22}{}}
\newlabel{eqn23}{{27}{3}{Complete Heyting algebra}{equation.22}{}}
\citation{Prisacariu10}
\citation{Zadeh1996}
\newlabel{eqn1}{{1}{4}{Synchronous Kleene algebra}{equation.1}{}}
\newlabel{eqn2}{{2}{4}{Synchronous Kleene algebra}{equation.1}{}}
\newlabel{eqn3}{{3}{4}{Synchronous Kleene algebra}{equation.1}{}}
\newlabel{eqn4}{{4}{4}{Synchronous Kleene algebra}{equation.1}{}}
\newlabel{eqn5}{{5}{4}{Synchronous Kleene algebra}{equation.1}{}}
\newlabel{eqn6}{{6}{4}{Synchronous Kleene algebra}{equation.1}{}}
\newlabel{eqn7}{{7}{4}{Synchronous Kleene algebra}{equation.1}{}}
\newlabel{eqn8}{{8}{4}{Synchronous Kleene algebra}{equation.1}{}}
\newlabel{eqn9}{{9}{4}{Synchronous Kleene algebra}{equation.1}{}}
\newlabel{eqn10}{{10}{4}{Synchronous Kleene algebra}{equation.1}{}}
\newlabel{eqn11}{{11}{4}{Synchronous Kleene algebra}{equation.1}{}}
\newlabel{eqn12}{{12}{4}{Synchronous Kleene algebra}{equation.1}{}}
\newlabel{eqn13}{{13}{4}{Synchronous Kleene algebra}{equation.1}{}}
\newlabel{eqn30}{{14}{4}{Synchronous Kleene algebra}{equation.1}{}}
\newlabel{eqn31}{{15}{4}{Synchronous Kleene algebra}{equation.1}{}}
\newlabel{eqn32}{{16}{4}{Synchronous Kleene algebra}{equation.1}{}}
\newlabel{eqn33}{{17}{4}{Synchronous Kleene algebra}{equation.1}{}}
\newlabel{eqn34}{{18}{4}{Synchronous Kleene algebra}{equation.1}{}}
\newlabel{eqn35}{{19}{4}{Synchronous Kleene algebra}{equation.1}{}}
\newlabel{eqn36}{{20}{4}{Synchronous Kleene algebra}{equation.1}{}}
\newlabel{eqn37}{{21}{4}{Synchronous Kleene algebra}{equation.1}{}}
\@writefile{lof}{\contentsline {figure}{\numberline {2}{\ignorespaces Axiomatisation of SKA from \cite  {Prisacariu10}.}}{4}{figure.2}}
\newlabel{fig:axska}{{2}{4}{Axiomatisation of SKA from \cite {Prisacariu10}}{figure.2}{}}
\newlabel{2}{{1.4}{4}{$\mathbf {2}$- the Boolean algebra}{thm.0.1.4}{}}
\newlabel{3}{{1.5}{4}{Complete Heyting algebra}{thm.0.1.5}{}}
\newlabel{godel}{{1.6}{4}{Gödel algebra}{thm.0.1.6}{}}
\@writefile{toc}{\contentsline {section}{\numberline {2}Fuzzy synchronous languages}{4}{section.0.2}}
\newlabel{sec:model}{{2}{4}{Fuzzy synchronous languages}{section.0.2}{}}
\citation{Prisacariu10}
\newlabel{def:fuzzy synchronous language}{{2.1}{5}{$\SH $-Fuzzy synchronous language}{thm.0.2.1}{}}
\newlabel{def:fi}{{2.3}{5}{Fuzzy interpretation}{thm.0.2.3}{}}
\@writefile{toc}{\contentsline {section}{\numberline {3}Synchronous product of fuzzy automata}{5}{section.0.3}}
\newlabel{sec:automata}{{3}{5}{Synchronous product of fuzzy automata}{section.0.3}{}}
\citation{LeeZ69}
\citation{Prisacariu10}
\newlabel{def:fuzzyautomata}{{3.1}{6}{Nondeterministic automata with fuzzy transitions}{thm.0.3.1}{}}
\newlabel{def:flang recognized}{{3.2}{6}{Synchronous product of fuzzy automata}{thm.0.3.2}{}}
\newlabel{th:actionstoautomata}{{3.3}{6}{Synchronous product of fuzzy automata}{thm.0.3.3}{}}
\citation{ullman03}
\@writefile{lof}{\contentsline {figure}{\numberline {3}{\ignorespaces Automata representing actions $a\in \mathcal  {A}_B$, $\mathbf  {0}$ and $\mathbf  {1}$.}}{7}{figure.3}}
\newlabel{fig:basicautomata}{{3}{7}{Automata representing actions $a\in \mathcal {A}_B$, $\mathbf {0}$ and $\mathbf {1}$}{figure.3}{}}
\@writefile{lof}{\contentsline {figure}{\numberline {4}{\ignorespaces Automata representing action $\alpha +\beta $.}}{7}{figure.4}}
\newlabel{fig:automataplus}{{4}{7}{Automata representing action $\alpha +\beta $}{figure.4}{}}
\@writefile{lof}{\contentsline {figure}{\numberline {5}{\ignorespaces Automata representing action $\alpha \cdot \beta $.}}{8}{figure.5}}
\newlabel{fig:automataconc}{{5}{8}{Automata representing action $\alpha \cdot \beta $}{figure.5}{}}
\@writefile{lof}{\contentsline {figure}{\numberline {6}{\ignorespaces Automata representing action $\alpha ^*$.}}{8}{figure.6}}
\newlabel{fig:automatastar}{{6}{8}{Automata representing action $\alpha ^*$}{figure.6}{}}
\@writefile{lof}{\contentsline {figure}{\numberline {7}{\ignorespaces Example of the automaton construction corresponding to $\alpha \times \beta $.}}{9}{figure.7}}
\newlabel{fig:automatasync}{{7}{9}{Example of the automaton construction corresponding to $\alpha \times \beta $}{figure.7}{}}
\@writefile{lof}{\contentsline {figure}{\numberline {8}{\ignorespaces Application of $f$ in automata $\mathcal  {M}_{\alpha +\beta }$, $\mathcal  {M}_{\alpha \cdot \beta }$ and $\mathcal  {M}_{\alpha ^*}$.}}{9}{figure.8}}
\newlabel{fig:automataplusf}{{8}{9}{Application of $f$ in automata $\mathcal {M}_{\alpha +\beta }$, $\mathcal {M}_{\alpha \cdot \beta }$ and $\mathcal {M}_{\alpha ^*}$}{figure.8}{}}
\citation{GKAT}
\citation{GKAT}
\newlabel{th:fuzzySKA}{{3.6}{10}{Synchronous product of fuzzy automata}{thm.0.3.6}{}}
\@writefile{lof}{\contentsline {figure}{\numberline {9}{\ignorespaces Two $\mathcal  {H}$-FA representing the basic actions $c$ and $m$.}}{12}{figure.9}}
\newlabel{fig:coffeemilk}{{9}{12}{Two $\SH $-FA representing the basic actions $c$ and $m$}{figure.9}{}}
\@writefile{lof}{\contentsline {figure}{\numberline {10}{\ignorespaces The synchronous product.}}{12}{figure.10}}
\newlabel{fig:sync}{{10}{12}{The synchronous product}{figure.10}{}}
\citation{LiP05}
\citation{MateescuSSY95}
\citation{RABIN1963230}
\citation{Prisacariu10}
\bibstyle{abbrv}
\bibdata{thesis.bib}
\bibcite{Zadeh1996}{1}
\bibcite{fuzzyautomata}{2}
\bibcite{FMC17}{3}
\bibcite{GKAT}{4}
\bibcite{ullman03}{5}
\bibcite{Kleene56}{6}
\bibcite{Kozen90}{7}
\bibcite{LeeZ69}{8}
\bibcite{LiP05}{9}
\@writefile{toc}{\contentsline {section}{\numberline {4}Conclusions}{13}{section.0.4}}
\newlabel{sec:conc}{{4}{13}{Conclusions}{section.0.4}{}}
\@writefile{toc}{\contentsline {section}{References}{13}{section*.1}}
\bibcite{LinY02}{10}
\bibcite{MateescuSSY95}{11}
\bibcite{Mil80}{12}
\bibcite{Milner83}{13}
\bibcite{Milner2006}{14}
\bibcite{Mordeson2002}{15}
\bibcite{PedryczG01}{16}
\bibcite{Prisacariu10}{17}
\bibcite{RABIN1963230}{18}
\bibcite{Segerberg1982}{19}
\bibcite{vonWright1968-VONAEI-3}{20}
\bibcite{Wee1969}{21}
\bibcite{Ying02a}{22}
\newlabel{LastPage}{{}{14}{\relax }{}{}}
